i0002 Rlang
…
── Variable type: factor ──────────────────────────────────────────────────────────────────────────────────────
  skim_variable n_missing complete_rate ordered n_unique top_counts
1 Idx0                  0             1 FALSE         75 i1: 1, i2: 1, i3: 1, i4: 1

── Variable type: numeric ─────────────────────────────────────────────────────────────────────────────────────
  skim_variable n_missing complete_rate  mean    sd     p0    p25   p50   p75  p100 hist
1 ba0ActTot             0             1 0.228 0.139 -0.144 0.124  0.233 0.319 0.581 ▁▅▇▅▁
2 ba0PasTot             0             1 0.147 0.121 -0.160 0.0588 0.143 0.196 0.483 ▁▅▇▂▁

1.4. DF2

df2

# A tibble: 150 × 7
   Idx0  ActiveVoice                          PassiveVoice                        ba0Act ba0Pas feature   value
   <fct> <chr>                                <chr>                               <chr>  <chr>  <chr>     <dbl>
 1 i1    ['The chef cooked the meal.']        ['The meal was cooked by the chef.… [0.24… [0.14… ba0Act…  0.248
 2 i1    ['The chef cooked the meal.']        ['The meal was cooked by the chef.… [0.24… [0.14… ba0Pas…  0.142
 3 i2    ['The teacher praised the student.'] ['The student was praised by the t… [0.28… [0.34… ba0Act…  0.284
 4 i2    ['The teacher praised the student.'] ['The student was praised by the t… [0.28… [0.34… ba0Pas…  0.348
 5 i3    ['The storm destroyed the village.'] ['The village was destroyed by the… [-0.1… [-0.1… ba0Act… -0.110
 6 i3    ['The storm destroyed the village.'] ['The village was destroyed by the… [-0.1… [-0.1… ba0Pas… -0.160
 7 i4    ['She wrote a letter.']              ['A letter was written by her.']    [0.06… [0.05… ba0Act…  0.0671
 8 i4    ['She wrote a letter.']              ['A letter was written by her.']    [0.06… [0.05… ba0Pas…  0.0556
 9 i5    ['They built the bridge.']           ['The bridge was built by them.']   [0.18… [0.09… ba0Act…  0.182
10 i5    ['They built the bridge.']           ['The bridge was built by them.']   [0.18… [0.09… ba0Pas…  0.0989
# i 140 more rows
# i Use `print(n = ...)` to see more rows
…
